^D:\1. QULEYAH QHERJA QHUDA\SEMESTER 5\GRAFIKA KOMPUTER\PRAKTIKUM\M6\SNAKE\OPENGL_VISUAL STUDIO\DEBUG\GAME.OBJ|D:\1. QULEYAH QHERJA QHUDA\SEMESTER 5\GRAFIKA KOMPUTER\PRAKTIKUM\M6\SNAKE\OPENGL_VISUAL STUDIO\DEBUG\MAIN.OBJ
D:\1. QULEYAH QHERJA QHUDA\SEMESTER 5\GRAFIKA KOMPUTER\PRAKTIKUM\M6\SNAKE\DEPENDENCIES\FREEGLUT\LIB\WIN32\FREEGLUT.LIB
D:\1. QULEYAH QHERJA QHUDA\SEMESTER 5\GRAFIKA KOMPUTER\PRAKTIKUM\M6\SNAKE\DEPENDENCIES\GLEW-2.1.0\LIB\RELEASE\WIN32\GLEW32.LIB
C:\PROGRAM FILES (X86)\WINDOWS KITS\10\LIB\10.0.18362.0\UM\X86\KERNEL32.LIB
C:\PROGRAM FILES (X86)\WINDOWS KITS\10\LIB\10.0.18362.0\UM\X86\USER32.LIB
C:\PROGRAM FILES (X86)\WINDOWS KITS\10\LIB\10.0.18362.0\UM\X86\GDI32.LIB
C:\PROGRAM FILES (X86)\WINDOWS KITS\10\LIB\10.0.18362.0\UM\X86\WINSPOOL.LIB
C:\PROGRAM FILES (X86)\WINDOWS KITS\10\LIB\10.0.18362.0\UM\X86\COMDLG32.LIB
C:\PROGRAM FILES (X86)\WINDOWS KITS\10\LIB\10.0.18362.0\UM\X86\ADVAPI32.LIB
C:\PROGRAM FILES (X86)\WINDOWS KITS\10\LIB\10.0.18362.0\UM\X86\SHELL32.LIB
C:\PROGRAM FILES (X86)\WINDOWS KITS\10\LIB\10.0.18362.0\UM\X86\OLE32.LIB
C:\PROGRAM FILES (X86)\WINDOWS KITS\10\LIB\10.0.18362.0\UM\X86\OLEAUT32.LIB
C:\PROGRAM FILES (X86)\WINDOWS KITS\10\LIB\10.0.18362.0\UM\X86\UUID.LIB
C:\PROGRAM FILES (X86)\WINDOWS KITS\10\LIB\10.0.18362.0\UM\X86\ODBC32.LIB
C:\PROGRAM FILES (X86)\WINDOWS KITS\10\LIB\10.0.18362.0\UM\X86\ODBCCP32.LIB
D:\1. QULEYAH QHERJA QHUDA\SEMESTER 5\GRAFIKA KOMPUTER\PRAKTIKUM\M6\SNAKE\OPENGL_VISUAL STUDIO\DEBUG\GAME.OBJ
D:\1. QULEYAH QHERJA QHUDA\SEMESTER 5\GRAFIKA KOMPUTER\PRAKTIKUM\M6\SNAKE\OPENGL_VISUAL STUDIO\DEBUG\MAIN.OBJ
C:\WINDOWS\SYSTEM32\TZRES.DLL
C:\WINDOWS\GLOBALIZATION\SORTING\SORTDEFAULT.NLS
C:\PROGRAM FILES (X86)\WINDOWS KITS\10\LIB\10.0.18362.0\UM\X86\GLU32.LIB
C:\PROGRAM FILES (X86)\WINDOWS KITS\10\LIB\10.0.18362.0\UM\X86\OPENGL32.LIB
C:\PROGRAM FILES (X86)\WINDOWS KITS\10\LIB\10.0.18362.0\UM\X86\WINMM.LIB
C:\PROGRAM FILES (X86)\MICROSOFT VISUAL STUDIO\2019\COMMUNITY\VC\TOOLS\MSVC\14.23.28105\LIB\X86\MSVCPRTD.LIB
C:\PROGRAM FILES (X86)\MICROSOFT VISUAL STUDIO\2019\COMMUNITY\VC\TOOLS\MSVC\14.23.28105\LIB\X86\MSVCRTD.LIB
C:\PROGRAM FILES (X86)\MICROSOFT VISUAL STUDIO\2019\COMMUNITY\VC\TOOLS\MSVC\14.23.28105\LIB\X86\OLDNAMES.LIB
C:\PROGRAM FILES (X86)\MICROSOFT VISUAL STUDIO\2019\COMMUNITY\VC\TOOLS\MSVC\14.23.28105\LIB\X86\VCRUNTIMED.LIB
C:\PROGRAM FILES (X86)\WINDOWS KITS\10\LIB\10.0.18362.0\UCRT\X86\UCRTD.LIB
